3-大二上学期/计算机组成原理/实验/EX_4/simulation/qsim/EX_4.msim.vcd
$comment
	File created using the following command:
		vcd file EX_4.msim.vcd -direction
$end
$date
	Wed Dec 01 18:24:46 2021
$end
$version
	ModelSim Version 10.1d
$end
$timescale
	1ps
$end
$scope module EX_4_vlg_vec_tst $end
$var reg 1 ! Clk $end
$var reg 1 " Clr $end
$var reg 1 # GRin $end
$var reg 1 $ GRout $end
$var reg 1 % GRsel $end
$var reg 1 & IRin $end
$var reg 1 ' MARin $end
$var reg 1 ( MDRin $end
$var reg 1 ) MDRout $end
$var reg 1 * MEMRd $end
$var reg 1 + MEMWr $end
$var reg 2 , op [1:0] $end
$var reg 1 - PC_1 $end
$var reg 1 . PCin $end
$var reg 1 / PCout $end
$var reg 1 0 Yin $end
$var reg 1 1 Zin $end
$var reg 1 2 Zout $end
$var wire 1 3 BUS [7] $end
$var wire 1 4 BUS [6] $end
$var wire 1 5 BUS [5] $end
$var wire 1 6 BUS [4] $end
$var wire 1 7 BUS [3] $end
$var wire 1 8 BUS [2] $end
$var wire 1 9 BUS [1] $end
$var wire 1 : BUS [0] $end
$var wire 1 ; CF $end
$var wire 1 < IR [7] $end
$var wire 1 = IR [6] $end
$var wire 1 > IR [5] $end
$var wire 1 ? IR [4] $end
$var wire 1 @ IR [3] $end
$var wire 1 A IR [2] $end
$var wire 1 B IR [1] $end
$var wire 1 C IR [0] $end
$var wire 1 D OF $end
$var wire 1 E PC [7] $end
$var wire 1 F PC [6] $end
$var wire 1 G PC [5] $end
$var wire 1 H PC [4] $end
$var wire 1 I PC [3] $end
$var wire 1 J PC [2] $end
$var wire 1 K PC [1] $end
$var wire 1 L PC [0] $end
$var wire 1 M SF $end
$var wire 1 N ZF $end
$var wire 1 O sampler $end
$scope module i1 $end
$var wire 1 P gnd $end
$var wire 1 Q vcc $end
$var wire 1 R unknown $end
$var tri1 1 S devclrn $end
$var tri1 1 T devpor $end
$var tri1 1 U devoe $end
$var wire 1 V BUS[7]~output_o $end
$var wire 1 W BUS[6]~output_o $end
$var wire 1 X BUS[5]~output_o $end
$var wire 1 Y BUS[4]~output_o $end
$var wire 1 Z BUS[3]~output_o $end
$var wire 1 [ BUS[2]~output_o $end
$var wire 1 \ BUS[1]~output_o $end
$var wire 1 ] BUS[0]~output_o $end
$var wire 1 ^ CF~output_o $end
$var wire 1 _ IR[7]~output_o $end
$var wire 1 ` IR[6]~output_o $end
$var wire 1 a IR[5]~output_o $end
$var wire 1 b IR[4]~output_o $end
$var wire 1 c IR[3]~output_o $end
$var wire 1 d IR[2]~output_o $end
$var wire 1 e IR[1]~output_o $end
$var wire 1 f IR[0]~output_o $end
$var wire 1 g PC[7]~output_o $end
$var wire 1 h PC[6]~output_o $end
$var wire 1 i PC[5]~output_o $end
$var wire 1 j PC[4]~output_o $end
$var wire 1 k PC[3]~output_o $end
$var wire 1 l PC[2]~output_o $end
$var wire 1 m PC[1]~output_o $end
$var wire 1 n PC[0]~output_o $end
$var wire 1 o OF~output_o $end
$var wire 1 p ZF~output_o $end
$var wire 1 q SF~output_o $end
$var wire 1 r Clk~input_o $end
$var wire 1 s GRout~input_o $end
$var wire 1 t PCout~input_o $end
$var wire 1 u Zout~input_o $end
$var wire 1 v MDRout~input_o $end
$var wire 1 w inst10|din[7]~20_combout $end
$var wire 1 x inst10|din[7]~21_combout $end
$var wire 1 y Clr~input_o $end
$var wire 1 z inst10|din[3]~37_combout $end
$var wire 1 { GRin~input_o $end
$var wire 1 | inst2|inst12|36~combout $end
$var wire 1 } GRsel~input_o $end
$var wire 1 ~ inst10|din[2]~42_combout $end
$var wire 1 !! inst10|din[2]~43_combout $end
$var wire 1 "! MEMWr~input_o $end
$var wire 1 #! inst10|din[6]~22_combout $end
$var wire 1 $! inst10|din[6]~23_combout $end
$var wire 1 %! MDRin~input_o $end
$var wire 1 &! MARin~input_o $end
$var wire 1 '! inst10|din[4]~32_combout $end
$var wire 1 (! inst10|din[4]~33_combout $end
$var wire 1 )! inst10|din[5]~27_combout $end
$var wire 1 *! inst10|din[5]~28_combout $end
$var wire 1 +! inst|inst6~combout $end
$var wire 1 ,! inst|inst|LPM_MUX_component|auto_generated|result_node[5]~2_combout $end
$var wire 1 -! MEMRd~input_o $end
$var wire 1 .! op[1]~input_o $end
$var wire 1 /! op[0]~input_o $end
$var wire 1 0! Yin~input_o $end
$var wire 1 1! inst21|inst19|inst5|$00000|auto_generated|result_node[5]~10_combout $end
$var wire 1 2! inst21|inst15|LPM_ADD_SUB_component|auto_generated|_~2_combout $end
$var wire 1 3! inst21|inst15|LPM_ADD_SUB_component|auto_generated|_~3_combout $end
$var wire 1 4! inst21|inst15|LPM_ADD_SUB_component|auto_generated|_~4_combout $end
$var wire 1 5! inst21|inst15|LPM_ADD_SUB_component|auto_generated|_~5_combout $end
$var wire 1 6! inst21|inst15|LPM_ADD_SUB_component|auto_generated|_~6_combout $end
$var wire 1 7! inst21|inst15|LPM_ADD_SUB_component|auto_generated|_~7_combout $end
$var wire 1 8! inst21|inst15|LPM_ADD_SUB_component|auto_generated|result_int[0]~1_cout $end
$var wire 1 9! inst21|inst15|LPM_ADD_SUB_component|auto_generated|result_int[1]~3 $end
$var wire 1 :! inst21|inst15|LPM_ADD_SUB_component|auto_generated|result_int[2]~5 $end
$var wire 1 ;! inst21|inst15|LPM_ADD_SUB_component|auto_generated|result_int[3]~7 $end
$var wire 1 <! inst21|inst15|LPM_ADD_SUB_component|auto_generated|result_int[4]~9 $end
$var wire 1 =! inst21|inst15|LPM_ADD_SUB_component|auto_generated|result_int[5]~11 $end
$var wire 1 >! inst21|inst15|LPM_ADD_SUB_component|auto_generated|result_int[6]~12_combout $end
$var wire 1 ?! inst21|inst19|inst5|$00000|auto_generated|result_node[5]~11_combout $end
$var wire 1 @! Zin~input_o $end
$var wire 1 A! inst10|din[5]~29_combout $end
$var wire 1 B! PCin~input_o $end
$var wire 1 C! inst5|LPM_COUNTER_component|auto_generated|latch_signal[5]~10_combout $end
$var wire 1 D! inst5|LPM_COUNTER_component|auto_generated|latch_signal[4]~11_combout $end
$var wire 1 E! inst5|LPM_COUNTER_component|auto_generated|latch_signal[3]~12_combout $end
$var wire 1 F! inst5|LPM_COUNTER_component|auto_generated|latch_signal[2]~13_combout $end
$var wire 1 G! inst5|LPM_COUNTER_component|auto_generated|latch_signal[1]~14_combout $end
$var wire 1 H! inst5|LPM_COUNTER_component|auto_generated|latch_signal[0]~15_combout $end
$var wire 1 I! inst5|LPM_COUNTER_component|auto_generated|counter_comb_bita0~combout $end
$var wire 1 J! inst5|LPM_COUNTER_component|auto_generated|counter_reg_bit[0]~7_combout $end
$var wire 1 K! inst5|LPM_COUNTER_component|auto_generated|safe_q[7]~8_combout $end
$var wire 1 L! PC_1~input_o $end
$var wire 1 M! inst5|LPM_COUNTER_component|auto_generated|counter_comb_bita0~COUT $end
$var wire 1 N! inst5|LPM_COUNTER_component|auto_generated|counter_comb_bita1~combout $end
$var wire 1 O! inst5|LPM_COUNTER_component|auto_generated|counter_reg_bit[1]~6_combout $end
$var wire 1 P! inst5|LPM_COUNTER_component|auto_generated|counter_comb_bita1~COUT $end
$var wire 1 Q! inst5|LPM_COUNTER_component|auto_generated|counter_comb_bita2~combout $end
$var wire 1 R! inst5|LPM_COUNTER_component|auto_generated|counter_reg_bit[2]~5_combout $end
$var wire 1 S! inst5|LPM_COUNTER_component|auto_generated|counter_comb_bita2~COUT $end
$var wire 1 T! inst5|LPM_COUNTER_component|auto_generated|counter_comb_bita3~combout $end
$var wire 1 U! inst5|LPM_COUNTER_component|auto_generated|counter_reg_bit[3]~4_combout $end
$var wire 1 V! inst5|LPM_COUNTER_component|auto_generated|counter_comb_bita3~COUT $end
$var wire 1 W! inst5|LPM_COUNTER_component|auto_generated|counter_comb_bita4~combout $end
$var wire 1 X! inst5|LPM_COUNTER_component|auto_generated|counter_reg_bit[4]~3_combout $end
$var wire 1 Y! inst5|LPM_COUNTER_component|auto_generated|counter_comb_bita4~COUT $end
$var wire 1 Z! inst5|LPM_COUNTER_component|auto_generated|counter_comb_bita5~combout $end
$var wire 1 [! inst5|LPM_COUNTER_component|auto_generated|counter_reg_bit[5]~2_combout $end
$var wire 1 \! inst5|LPM_COUNTER_component|auto_generated|safe_q[5]~2_combout $end
$var wire 1 ]! inst10|din[5]~30_combout $end
$var wire 1 ^! inst10|din[5]~31_combout $end
$var wire 1 _! inst|inst|LPM_MUX_component|auto_generated|result_node[4]~3_combout $end
$var wire 1 `! inst21|inst19|inst5|$00000|auto_generated|result_node[4]~8_combout $end
$var wire 1 a! inst21|inst15|LPM_ADD_SUB_component|auto_generated|result_int[5]~10_combout $end
$var wire 1 b! inst21|inst19|inst5|$00000|auto_generated|result_node[4]~9_combout $end
$var wire 1 c! inst10|din[4]~34_combout $end
$var wire 1 d! inst5|LPM_COUNTER_component|auto_generated|safe_q[4]~3_combout $end
$var wire 1 e! inst10|din[4]~35_combout $end
$var wire 1 f! inst10|din[4]~36_combout $end
$var wire 1 g! inst|inst|LPM_MUX_component|auto_generated|result_node[6]~1_combout $end
$var wire 1 h! inst21|inst19|inst5|$00000|auto_generated|result_node[6]~12_combout $end
$var wire 1 i! inst21|inst15|LPM_ADD_SUB_component|auto_generated|_~1_combout $end
$var wire 1 j! inst21|inst15|LPM_ADD_SUB_component|auto_generated|result_int[6]~13 $end
$var wire 1 k! inst21|inst15|LPM_ADD_SUB_component|auto_generated|result_int[7]~14_combout $end
$var wire 1 l! inst21|inst19|inst5|$00000|auto_generated|result_node[6]~13_combout $end
$var wire 1 m! inst10|din[6]~24_combout $end
$var wire 1 n! inst5|LPM_COUNTER_component|auto_generated|latch_signal[6]~9_combout $end
$var wire 1 o! inst5|LPM_COUNTER_component|auto_generated|counter_comb_bita5~COUT $end
$var wire 1 p! inst5|LPM_COUNTER_component|auto_generated|counter_comb_bita6~combout $end
$var wire 1 q! inst5|LPM_COUNTER_component|auto_generated|counter_reg_bit[6]~1_combout $end
$var wire 1 r! inst5|LPM_COUNTER_component|auto_generated|safe_q[6]~1_combout $end
$var wire 1 s! inst10|din[6]~25_combout $end
$var wire 1 t! inst10|din[6]~26_combout $end
$var wire 1 u! inst|inst8~combout $end
$var wire 1 v! inst|inst|LPM_MUX_component|auto_generated|result_node[2]~5_combout $end
$var wire 1 w! inst21|inst19|inst5|$00000|auto_generated|result_node[2]~4_combout $end
$var wire 1 x! inst21|inst15|LPM_ADD_SUB_component|auto_generated|result_int[3]~6_combout $end
$var wire 1 y! inst21|inst19|inst5|$00000|auto_generated|result_node[2]~5_combout $end
$var wire 1 z! inst10|din[2]~44_combout $end
$var wire 1 {! inst5|LPM_COUNTER_component|auto_generated|safe_q[2]~5_combout $end
$var wire 1 |! inst10|din[2]~45_combout $end
$var wire 1 }! inst10|din[2]~46_combout $end
$var wire 1 ~! IRin~input_o $end
$var wire 1 !" inst2|inst8|24~0_combout $end
$var wire 1 "" inst10|din[3]~38_combout $end
$var wire 1 #" inst|inst|LPM_MUX_component|auto_generated|result_node[3]~4_combout $end
$var wire 1 $" inst21|inst19|inst5|$00000|auto_generated|result_node[3]~6_combout $end
$var wire 1 %" inst21|inst15|LPM_ADD_SUB_component|auto_generated|result_int[4]~8_combout $end
$var wire 1 &" inst21|inst19|inst5|$00000|auto_generated|result_node[3]~7_combout $end
$var wire 1 '" inst10|din[3]~39_combout $end
$var wire 1 (" inst5|LPM_COUNTER_component|auto_generated|safe_q[3]~4_combout $end
$var wire 1 )" inst10|din[3]~40_combout $end
$var wire 1 *" inst10|din[3]~41_combout $end
$var wire 1 +" inst6|LPM_MUX_component|auto_generated|result_node[1]~0_combout $end
$var wire 1 ," inst10|din[0]~52_combout $end
$var wire 1 -" inst10|din[0]~53_combout $end
$var wire 1 ." inst|inst|LPM_MUX_component|auto_generated|result_node[0]~7_combout $end
$var wire 1 /" inst21|inst19|inst5|$00000|auto_generated|result_node[0]~2_combout $end
$var wire 1 0" inst21|inst15|LPM_ADD_SUB_component|auto_generated|result_int[1]~2_combout $end
$var wire 1 1" inst21|inst19|inst5|$00000|auto_generated|result_node[0]~3_combout $end
$var wire 1 2" inst10|din[0]~54_combout $end
$var wire 1 3" inst5|LPM_COUNTER_component|auto_generated|safe_q[0]~7_combout $end
$var wire 1 4" inst10|din[0]~55_combout $end
$var wire 1 5" inst10|din[0]~56_combout $end
$var wire 1 6" inst2|inst12|34~0_combout $end
$var wire 1 7" inst10|din[1]~47_combout $end
$var wire 1 8" inst10|din[1]~48_combout $end
$var wire 1 9" inst|inst|LPM_MUX_component|auto_generated|result_node[1]~6_combout $end
$var wire 1 :" inst21|inst19|inst5|$00000|auto_generated|result_node[1]~0_combout $end
$var wire 1 ;" inst21|inst15|LPM_ADD_SUB_component|auto_generated|result_int[2]~4_combout $end
$var wire 1 <" inst21|inst19|inst5|$00000|auto_generated|result_node[1]~1_combout $end
$var wire 1 =" inst10|din[1]~49_combout $end
$var wire 1 >" inst5|LPM_COUNTER_component|auto_generated|safe_q[1]~6_combout $end
$var wire 1 ?" inst10|din[1]~50_combout $end
$var wire 1 @" inst10|din[1]~51_combout $end
$var wire 1 A" inst2|inst12|35~combout $end
$var wire 1 B" inst10|din[7]~16_combout $end
$var wire 1 C" inst10|din[7]~17_combout $end
$var wire 1 D" inst|inst|LPM_MUX_component|auto_generated|result_node[7]~0_combout $end
$var wire 1 E" inst21|inst19|inst5|$00000|auto_generated|result_node[7]~14_combout $end
$var wire 1 F" inst21|inst15|LPM_ADD_SUB_component|auto_generated|_~0_combout $end
$var wire 1 G" inst21|inst15|LPM_ADD_SUB_component|auto_generated|result_int[7]~15 $end
$var wire 1 H" inst21|inst15|LPM_ADD_SUB_component|auto_generated|result_int[8]~16_combout $end
$var wire 1 I" inst21|inst19|inst5|$00000|auto_generated|result_node[7]~15_combout $end
$var wire 1 J" inst10|din[7]~18_combout $end
$var wire 1 K" inst5|LPM_COUNTER_component|auto_generated|latch_signal[7]~8_combout $end
$var wire 1 L" inst5|LPM_COUNTER_component|auto_generated|counter_comb_bita6~COUT $end
$var wire 1 M" inst5|LPM_COUNTER_component|auto_generated|counter_comb_bita7~combout $end
$var wire 1 N" inst5|LPM_COUNTER_component|auto_generated|counter_reg_bit[7]~0_combout $end
$var wire 1 O" inst5|LPM_COUNTER_component|auto_generated|safe_q[7]~0_combout $end
$var wire 1 P" inst10|din[7]~19_combout $end
$var wire 1 Q" inst21|inst15|LPM_ADD_SUB_component|auto_generated|result_int[8]~17 $end
$var wire 1 R" inst21|inst15|LPM_ADD_SUB_component|auto_generated|result_int[9]~18_combout $end
$var wire 1 S" inst21|inst9~combout $end
$var wire 1 T" inst21|inst10~combout $end
$var wire 1 U" inst21|inst18|or_node[0][7]~0_combout $end
$var wire 1 V" inst21|inst18|or_node[0][7]~1_combout $end
$var wire 1 W" inst21|inst18|or_node[0][7]~combout $end
$var wire 1 X" inst2|inst5|dffs [7] $end
$var wire 1 Y" inst2|inst5|dffs [6] $end
$var wire 1 Z" inst2|inst5|dffs [5] $end
$var wire 1 [" inst2|inst5|dffs [4] $end
$var wire 1 \" inst2|inst5|dffs [3] $end
$var wire 1 ]" inst2|inst5|dffs [2] $end
$var wire 1 ^" inst2|inst5|dffs [1] $end
$var wire 1 _" inst2|inst5|dffs [0] $end
$var wire 1 `" inst2|inst9|dffs [7] $end
$var wire 1 a" inst2|inst9|dffs [6] $end
$var wire 1 b" inst2|inst9|dffs [5] $end
$var wire 1 c" inst2|inst9|dffs [4] $end
$var wire 1 d" inst2|inst9|dffs [3] $end
$var wire 1 e" inst2|inst9|dffs [2] $end
$var wire 1 f" inst2|inst9|dffs [1] $end
$var wire 1 g" inst2|inst9|dffs [0] $end
$var wire 1 h" inst2|inst10|dffs [7] $end
$var wire 1 i" inst2|inst10|dffs [6] $end
$var wire 1 j" inst2|inst10|dffs [5] $end
$var wire 1 k" inst2|inst10|dffs [4] $end
$var wire 1 l" inst2|inst10|dffs [3] $end
$var wire 1 m" inst2|inst10|dffs [2] $end
$var wire 1 n" inst2|inst10|dffs [1] $end
$var wire 1 o" inst2|inst10|dffs [0] $end
$var wire 1 p" inst23|latches [7] $end
$var wire 1 q" inst23|latches [6] $end
$var wire 1 r" inst23|latches [5] $end
$var wire 1 s" inst23|latches [4] $end
$var wire 1 t" inst23|latches [3] $end
$var wire 1 u" inst23|latches [2] $end
$var wire 1 v" inst23|latches [1] $end
$var wire 1 w" inst23|latches [0] $end
$var wire 1 x" inst18|latches [7] $end
$var wire 1 y" inst18|latches [6] $end
$var wire 1 z" inst18|latches [5] $end
$var wire 1 {" inst18|latches [4] $end
$var wire 1 |" inst18|latches [3] $end
$var wire 1 }" inst18|latches [2] $end
$var wire 1 ~" inst18|latches [1] $end
$var wire 1 !# inst18|latches [0] $end
$var wire 1 "# inst22|latches [7] $end
$var wire 1 ## inst22|latches [6] $end
$var wire 1 $# inst22|latches [5] $end
$var wire 1 %# inst22|latches [4] $end
$var wire 1 &# inst22|latches [3] $end
$var wire 1 '# inst22|latches [2] $end
$var wire 1 (# inst22|latches [1] $end
$var wire 1 )# inst22|latches [0] $end
$var wire 1 *# inst19|latches [7] $end
$var wire 1 +# inst19|latches [6] $end
$var wire 1 ,# inst19|latches [5] $end
$var wire 1 -# inst19|latches [4] $end
$var wire 1 .# inst19|latches [3] $end
$var wire 1 /# inst19|latches [2] $end
$var wire 1 0# inst19|latches [1] $end
$var wire 1 1# inst19|latches [0] $end
$var wire 1 2# inst20|latches [7] $end
$var wire 1 3# inst20|latches [6] $end
$var wire 1 4# inst20|latches [5] $end
$var wire 1 5# inst20|latches [4] $end
$var wire 1 6# inst20|latches [3] $end
$var wire 1 7# inst20|latches [2] $end
$var wire 1 8# inst20|latches [1] $end
$var wire 1 9# inst20|latches [0] $end
$var wire 1 :# inst5|LPM_COUNTER_component|auto_generated|pre_hazard [7] $end
$var wire 1 ;# inst5|LPM_COUNTER_component|auto_generated|pre_hazard [6] $end
$var wire 1 <# inst5|LPM_COUNTER_component|auto_generated|pre_hazard [5] $end
$var wire 1 =# inst5|LPM_COUNTER_component|auto_generated|pre_hazard [4] $end
$var wire 1 ># inst5|LPM_COUNTER_component|auto_generated|pre_hazard [3] $end
$var wire 1 ?# inst5|LPM_COUNTER_component|auto_generated|pre_hazard [2] $end
$var wire 1 @# inst5|LPM_COUNTER_component|auto_generated|pre_hazard [1] $end
$var wire 1 A# inst5|LPM_COUNTER_component|auto_generated|pre_hazard [0] $end
$var wire 1 B# inst17|latches [7] $end
$var wire 1 C# inst17|latches [6] $end
$var wire 1 D# inst17|latches [5] $end
$var wire 1 E# inst17|latches [4] $end
$var wire 1 F# inst17|latches [3] $end
$var wire 1 G# inst17|latches [2] $end
$var wire 1 H# inst17|latches [1] $end
$var wire 1 I# inst17|latches [0] $end
$var wire 1 J# inst|RAM|sram|ram_block|auto_generated|q_a [7] $end
$var wire 1 K# inst|RAM|sram|ram_block|auto_generated|q_a [6] $end
$var wire 1 L# inst|RAM|sram|ram_block|auto_generated|q_a [5] $end
$var wire 1 M# inst|RAM|sram|ram_block|auto_generated|q_a [4] $end
$var wire 1 N# inst|RAM|sram|ram_block|auto_generated|q_a [3] $end
$var wire 1 O# inst|RAM|sram|ram_block|auto_generated|q_a [2] $end
$var wire 1 P# inst|RAM|sram|ram_block|auto_generated|q_a [1] $end
$var wire 1 Q# inst|RAM|sram|ram_block|auto_generated|q_a [0] $end
$var wire 1 R# inst5|LPM_COUNTER_component|auto_generated|counter_reg_bit [7] $end
$var wire 1 S# inst5|LPM_COUNTER_component|auto_generated|counter_reg_bit [6] $end
$var wire 1 T# inst5|LPM_COUNTER_component|auto_generated|counter_reg_bit [5] $end
$var wire 1 U# inst5|LPM_COUNTER_component|auto_generated|counter_reg_bit [4] $end
$var wire 1 V# inst5|LPM_COUNTER_component|auto_generated|counter_reg_bit [3] $end
$var wire 1 W# inst5|LPM_COUNTER_component|auto_generated|counter_reg_bit [2] $end
$var wire 1 X# inst5|LPM_COUNTER_component|auto_generated|counter_reg_bit [1] $end
$var wire 1 Y# inst5|LPM_COUNTER_component|auto_generated|counter_reg_bit [0] $end
$var wire 1 Z# inst|ROM|srom|rom_block|auto_generated|q_a [7] $end
$var wire 1 [# inst|ROM|srom|rom_block|auto_generated|q_a [6] $end
$var wire 1 \# inst|ROM|srom|rom_block|auto_generated|q_a [5] $end
$var wire 1 ]# inst|ROM|srom|rom_block|auto_generated|q_a [4] $end
$var wire 1 ^# inst|ROM|srom|rom_block|auto_generated|q_a [3] $end
$var wire 1 _# inst|ROM|srom|rom_block|auto_generated|q_a [2] $end
$var wire 1 `# inst|ROM|srom|rom_block|auto_generated|q_a [1] $end
$var wire 1 a# inst|ROM|srom|rom_block|auto_generated|q_a [0] $end
$var wire 1 b# inst|RAM|sram|ram_block|auto_generated|ram_block1a7_PORTADATAOUT_bus [0] $end
$var wire 1 c# inst|ROM|srom|rom_block|auto_generated|ram_block1a7_PORTADATAOUT_bus [0] $end
$var wire 1 d# inst|RAM|sram|ram_block|auto_generated|ram_block1a6_PORTADATAOUT_bus [0] $end
$var wire 1 e# inst|ROM|srom|rom_block|auto_generated|ram_block1a6_PORTADATAOUT_bus [0] $end
$var wire 1 f# inst|RAM|sram|ram_block|auto_generated|ram_block1a5_PORTADATAOUT_bus [0] $end
$var wire 1 g# inst|ROM|srom|rom_block|auto_generated|ram_block1a5_PORTADATAOUT_bus [0] $end
$var wire 1 h# inst|RAM|sram|ram_block|auto_generated|ram_block1a4_PORTADATAOUT_bus [0] $end
$var wire 1 i# inst|ROM|srom|rom_block|auto_generated|ram_block1a4_PORTADATAOUT_bus [0] $end
$var wire 1 j# inst|RAM|sram|ram_block|auto_generated|ram_block1a3_PORTADATAOUT_bus [0] $end
$var wire 1 k# inst|ROM|srom|rom_block|auto_generated|ram_block1a3_PORTADATAOUT_bus [0] $end
$var wire 1 l# inst|RAM|sram|ram_block|auto_generated|ram_block1a2_PORTADATAOUT_bus [0] $end
$var wire 1 m# inst|ROM|srom|rom_block|auto_generated|ram_block1a2_PORTADATAOUT_bus [0] $end
$var wire 1 n# inst|RAM|sram|ram_block|auto_generated|ram_block1a1_PORTADATAOUT_bus [0] $end
$var wire 1 o# inst|ROM|srom|rom_block|auto_generated|ram_block1a1_PORTADATAOUT_bus [0] $end
$var wire 1 p# inst|RAM|sram|ram_block|auto_generated|ram_block1a0_PORTADATAOUT_bus [0] $end
$var wire 1 q# inst|ROM|srom|rom_block|auto_generated|ram_block1a0_PORTADATAOUT_bus [0] $end
$upscope $end
$upscope $end
$enddefinitions $end
#0
$dumpvars
0!
1"
0#
0$
0%
0&
0'
0(
0)
0*
0+
b0 ,
0-
0.
0/
00
01
02
z:
z9
z8
z7
z6
z5
z4
z3
x;
xC
xB
xA
x@
x?
x>
x=
x<
xD
0L
0K
0J
0I
0H
0G
0F
0E
xM
xN
xO
0P
1Q
xR
1S
1T
1U
zV
zW
zX
zY
zZ
z[
z\
z]
x^
x_
x`
xa
xb
xc
xd
xe
xf
0g
0h
0i
0j
0k
0l
0m
0n
xo
xp
xq
0r
0s
0t
0u
0v
0w
1x
1y
0z
0{
0|
0}
0~
1!!
0"!
0#!
1$!
0%!
0&!
0'!
1(!
0)!
1*!
0+!
0,!
0-!
0.!
0/!
00!
01!
12!
13!
14!
15!
16!
17!
08!
x9!
x:!
x;!
x<!
x=!
x>!
x?!
0@!
1A!
0B!
1C!
1D!
1E!
1F!
1G!
1H!
1I!
1J!
1K!
0L!
0M!
0N!
0O!
1P!
0Q!
0R!
0S!
0T!
0U!
1V!
0W!
0X!
0Y!
0Z!
0[!
0\!
1]!
1^!
0_!
0`!
xa!
xb!
1c!
0d!
1e!
1f!
0g!
0h!
1i!
xj!
xk!
xl!
1m!
1n!
1o!
0p!
0q!
0r!
1s!
1t!
0u!
0v!
0w!
xx!
xy!
1z!
0{!
1|!
1}!
0~!
x!"
1""
0#"
0$"
x%"
x&"
1'"
0("
1)"
1*"
x+"
0,"
1-"
0."
0/"
x0"
x1"
12"
03"
14"
15"
06"
07"
18"
09"
0:"
x;"
x<"
1="
0>"
1?"
1@"
0A"
0B"
1C"
0D"
0E"
1F"
xG"
xH"
xI"
1J"
1K"
0L"
0M"
0N"
0O"
1P"
xQ"
xR"
xS"
xT"
xU"
xV"
xW"
0_"
0^"
0]"
0\"
0["
0Z"
0Y"
0X"
0g"
0f"
0e"
0d"
0c"
0b"
0a"
0`"
0o"
0n"
0m"
0l"
0k"
0j"
0i"
0h"
xw"
xv"
xu"
xt"
xs"
xr"
xq"
xp"
x!#
x~"
x}"
x|"
x{"
xz"
xy"
xx"
x)#
x(#
x'#
x&#
x%#
x$#
x##
x"#
x1#
x0#
x/#
x.#
x-#
x,#
x+#
x*#
x9#
x8#
x7#
x6#
x5#
x4#
x3#
x2#
1A#
1@#
1?#
1>#
1=#
1<#
1;#
1:#
xI#
xH#
xG#
xF#
xE#
xD#
xC#
xB#
0Q#
0P#
0O#
0N#
0M#
0L#
0K#
0J#
0Y#
0X#
0W#
0V#
0U#
0T#
0S#
0R#
0a#
0`#
0_#
0^#
0]#
0\#
0[#
0Z#
0b#
0c#
0d#
0e#
0f#
0g#
0h#
0i#
0j#
0k#
0l#
0m#
0n#
0o#
0p#
0q#
$end
#5000
1!
1r
0O
xu!
x+!
#10000
0!
0r
1O
0u!
0+!
#15000
1!
1r
0O
xu!
x+!
#20000
0"
1/
1'
0!
0y
1t
1&!
0r
1O
0K!
1+#
1-#
1,#
1*#
1.#
1/#
10#
11#
0u!
0+!
0P"
0?"
04"
0)"
0|!
0s!
0e!
0]!
1w
0x
0@"
05"
0*"
0}!
0t!
0f!
0^!
0V
0\
0]
0Z
0[
0W
0Y
0X
03
09
0:
07
08
04
06
05
0F"
0*#
06!
00#
07!
01#
04!
0.#
05!
0/#
0+#
0i!
0-#
03!
0,#
02!
19!
0:!
1;!
0<!
1=!
0j!
1G"
0Q"
0R"
0S"
1^
1;
#25000
1!
1r
0O
1+!
#25001
1o#
1k#
1`#
1^#
19"
1#"
#30000
1-
1*
0/
0'
0!
1L!
1-!
0t
0&!
0r
1O
0"#
1(#
0)#
1&#
0'#
0##
0%#
0$#
0+!
1P"
1?"
14"
1)"
1|!
1s!
1e!
1]!
0w
1x
1@"
15"
1*"
1}!
1t!
1f!
1^!
zV
z\
z]
zZ
z[
zW
zY
zX
z3
z9
z:
z7
z8
z4
z6
z5
1F"
16!
17!
14!
15!
1i!
13!
12!
xQ"
x:!
x9!
x<!
x;!
xG"
x=!
xj!
xR"
xS"
x^
x;
#35000
1!
1r
0O
1+!
1Y#
0A#
1M!
0I!
13"
1N!
0J!
1n
1L
1O!
#40000
1&
1)
0-
0!
1~!
1v
0L!
0r
1O
0J"
02"
0z!
0m!
0c!
0A!
0+!
1s"
1r"
1q"
1p"
1v"
1w"
1t"
1u"
1w
1+"
1b
1a
1`
1_
1e
1f
1c
1d
1]
1\
1[
1Z
1Y
1X
1W
1V
1?
1>
1=
1<
1B
1C
1@
1A
1:
19
18
17
16
15
14
13
0P"
04"
0|!
0s!
0e!
0]!
0!"
0x
05"
0}!
0t!
0f!
0^!
0V
0]
0[
0W
0Y
0X
03
0:
08
04
06
05
0F"
07!
05!
0i!
03!
02!
0p"
0w"
0u"
0q"
0s"
0r"
19!
1!"
0_
0f
0d
0`
0b
0a
0<
0C
0A
0=
0?
0>
#45000
1!
1r
0O
1+!
#50000
1%
1$
0*
1'
0&
0)
0!
1}
1s
0-!
1&!
0~!
0v
0r
1O
0C"
08"
0-"
0""
0*!
0(!
0$!
0!!
1.#
10#
1J"
12"
1z!
1m!
1c!
1A!
0+!
0?"
0)"
0@"
0*"
0\
0Z
09
07
06!
00#
04!
0.#
0:!
1;!
0<!
1=!
0j!
1G"
0Q"
0R"
0S"
1^
1;
#55000
1!
1r
0O
1+!
#60000
0%
0$
1*
0'
0!
0}
0s
1-!
0&!
0r
1O
1C"
18"
1-"
1""
1*!
1(!
1$!
1!!
0+!
0w
1@"
15"
1*"
1}!
1t!
1f!
1^!
1x
z]
z\
z[
zZ
zY
zX
zW
zV
z:
z9
z8
z7
z6
z5
z4
z3
1P"
1?"
14"
1)"
1]!
1e!
1s!
1|!
16!
17!
14!
15!
1i!
13!
12!
1F"
x:!
x9!
x<!
x;!
xG"
x=!
xj!
xQ"
xR"
xS"
x^
x;
#65000
1!
1r
0O
1+!
#70000
1#
1)
0!
1{
1v
0r
1O
1A"
0J"
02"
0z!
0m!
0c!
0A!
0+!
1w
1]
1\
1[
1Z
1Y
1X
1W
1V
1:
19
18
17
16
15
14
13
0P"
04"
0|!
0s!
0e!
0]!
0x
05"
0}!
0t!
0f!
0^!
0V
0]
0[
0W
0Y
0X
03
0:
08
04
06
05
0F"
07!
05!
0i!
03!
02!
19!
#75000
1!
1r
0O
1+!
1\"
1^"
1z
17"
#80000
0*
0#
0)
0!
0-!
0{
0v
0r
1O
0A"
1J"
12"
1z!
1m!
1c!
1A!
0+!
0w
15"
1}!
1t!
1f!
1^!
1x
z]
z\
z[
zZ
zY
zX
zW
zV
z:
z9
z8
z7
z6
z5
z4
z3
1P"
14"
1|!
1s!
1e!
1]!
17!
15!
1i!
13!
12!
1F"
x9!
#85000
1!
1r
0O
1+!
#90000
0!
0r
1O
0+!
#95000
1!
1r
0O
1+!
#100000
0!
0r
1O
0+!
#105000
1!
1r
0O
1+!
